{
"nome": "sexta-feira 13",
"pontos": 100,
"mapa": [
{"aposento": "hall", "fantasma": 0, "ligacoes": ["entrada", "cozinha", "escritorio"]},
{"aposento": "cozinha", "fantasma": 15, "ligacoes": ["hall", "sala de jantar"]},
{"aposento": "escritorio", "fantasma": 0, "ligacoes": ["hall", "wc", "quarto"]},
{"aposento": "wc", "fantasma": 0, "ligacoes": ["escritorio"]},
{"aposento": "sala de jantar", "fantasma": 0, "ligacoes": ["cozinha", "sala de estar"]},
{"aposento": "sala de estar", "fantasma": 15, "ligacoes": ["exterior", "sala de jantar", "corredor"]},
{"aposento": "corredor", "fantasma": 0, "ligacoes": ["exterior", "sala de estar", "quarto"]},
{"aposento": "quarto", "fantasma": 40, "ligacoes": ["exterior", "escritorio", "corredor"]}
]
} 
